Chapter 5 The Many Variables & The Spurious Waffles | Statistical Rethinking Notes
…
Posterior prediction plots

Counterfactual plots

For now I’ll only recreate the posterior prediction plot.

plot_data_m5_3 <- data_divorce%>%
  select(Loc, divorce_s, marriage_s, age_s)%>%
  add_linpred_draws(m5_3)%>% # add the predicted mean divorce rates
  group_by(Loc, divorce_s)%>%
  mean_qi(x=.linpred, .width = 0.89)%>% # summarise each group in the df 
  print(digits = 3)

## # A tibble: 50 x 8
##    Loc   divorce_s      x   .lower   .upper .width .point .interval
##    <fct>     <dbl>  <dbl>    <dbl>    <dbl>  <dbl> <chr>  <chr>    
##  1 AK        1.54   0.323  0.00191  0.637     0.89 mean   qi       
##  2 AL        1.65   0.370  0.158    0.578     0.89 mean   qi       
##  3 AR        2.09   0.762  0.431    1.09      0.89 mean   qi       
##  4 AZ        0.611  0.121 -0.0380   0.278     0.89 mean   qi       
##  5 CA       -0.927 -0.353 -0.545   -0.162     0.89 mean   qi       
##  6 CO        1.05   0.118 -0.116    0.345     0.89 mean   qi       
##  7 CT       -1.64  -0.716 -0.982   -0.445     0.89 mean   qi       
##  8 DC       -1.86  -1.76  -2.40    -1.12      0.89 mean   qi       
##  9 DE       -0.433 -0.321 -0.639   -0.00287   0.89 mean   qi       
## 10 FL       -0.652 -0.120 -0.339    0.0988    0.89 mean   qi       
## # ... with 40 more rows
…
